Estimating Cross Media Usage Using Copulas – my blog
…
The MovieLenseMeta dataset shows the genre classification for each film, in the same order as the dimension names in MovieLense:

MovieLenseMeta %>% 
  head(1) %>% 
  mutate(across(everything(), as.character)) %>% 
  pivot_longer(everything()) %>% 
  mutate(value = substring(value, 1, 40))

# A tibble: 22 × 2
   name       value                                   
   <chr>      <chr>                                   
 1 title      Toy Story (1995)                        
 2 year       1995                                    
 3 url        http://us.imdb.com/M/title-exact?Toy%20S
 4 unknown    0                                       
 5 Action     0                                       
 6 Adventure  0                                       
 7 Animation  1                                       
 8 Children's 1                                       
 9 Comedy     1                                       
10 Crime      0                                       
# ℹ 12 more rows
…
